item1,item2,item3,weight
hello,world,1,1
hello,planet,1,1
hello,country,1,1
hello,world,2,2
hello,planet,2,2
hello,country,2,2
test,this,2,2
test,code,2,3
test,this,3,20
test,code,3,30
world,1,1,2
world,2,1,3
world,1,2,30
world,2,2,40
